{
    "iss": "https://self-issued.me/v2",
    "aud": "https://book.itsourweb.org:3000/ohip",
    "iat": 1615910538,
    "exp": 1615911138,
    "sub": "NzbLsXh8uDCcd-6MNwXF4W_7noWXFZAfHkxZsRGC9Xs",
    "sub_jwk": {
        "kty": "RSA",
        "n": "0vx7agoebGcQSuuPiLJXZptN9nndrQmbXEps2aiAFbWhM78LhWx...DKgw",
        "e": "AQAB"
    },
    "auth_time": 1615910535,
    "nonce": "960848874",
    "presentation_submission": {
        "id": "health credential",
        "definition_id": "health credential",
        "descriptor_map": [
            {
                "id": "Ontario Health Insurance Plan",
                "format": "jwt_vp",
                "path": "$.verifiable_presentations[0].presentation",
                "path_nested": {
                    "format": "jwt_vc",
                    "path": "$.verifiableCredential[0]"
                }
            }
        ]
    },
    "verifiable_presentations": [
        {
           "format":"jwt_vp",
           "presentation":"ewogICAgImlzcyI6Imh0dHBzOi8vYm9vay5pdHNvdXJ3ZWIub...IH0="
        }
     ]
}